{
  "page": 1,
  "per_page": 15,
  "photos": [
    {
      "id": 2013665,
      "width": 4928,
      "height": 3264,
      "url": "https://www.pexels.com/photo/close-up-photo-of-hamster-on-hand-2013665/",
      "photographer": "Juris Freidenfelds",
      "photographer_url": "https://www.pexels.com/@juris-freidenfelds-927897",
      "photographer_id": 927897,
      "avg_color": "#A09288",
      "src": {
        "original": "https://images.pexels.com/photos/2013665/pexels-photo-2013665.jpeg",
        "large2x": "https://images.pexels.com/photos/2013665/pexels-photo-2013665.jpeg?auto=compress\u0026cs=tinysrgb\u0026dpr=2\u0026h=650\u0026w=940",
        "large": "https://images.pexels.com/photos/2013665/pexels-photo-2013665.jpeg?auto=compress\u0026cs=tinysrgb\u0026h=650\u0026w=940",
        "medium": "https://images.pexels.com/photos/2013665/pexels-photo-2013665.jpeg?auto=compress\u0026cs=tinysrgb\u0026h=350",
        "small": "https://images.pexels.com/photos/2013665/pexels-photo-2013665.jpeg?auto=compress\u0026cs=tinysrgb\u0026h=130",
        "portrait": "https://images.pexels.com/photos/2013665/pexels-photo-2013665.jpeg?auto=compress\u0026cs=tinysrgb\u0026fit=crop\u0026h=1200\u0026w=800",
        "landscape": "https://images.pexels.com/photos/2013665/pexels-photo-2013665.jpeg?auto=compress\u0026cs=tinysrgb\u0026fit=crop\u0026h=627\u0026w=1200",
        "tiny": "https://images.pexels.com/photos/2013665/pexels-photo-2013665.jpeg?auto=compress\u0026cs=tinysrgb\u0026dpr=1\u0026fit=crop\u0026h=200\u0026w=280"
      },
      "liked": false,
      "alt": "Adorable hamster perched on a hand surrounded by spring blossoms, capturing the essence of nature's charm."
    },
    {
      "id": 325490,
      "width": 6000,
      "height": 4000,
      "url": "https://www.pexels.com/photo/close-up-of-woman-holding-a-hamster-325490/",
      "photographer": "Rudolf Jakkel",
      "photographer_url": "https://www.pexels.com/@jakkel",
      "photographer_id": 19456,
      "avg_color": "#595E69",
      "src": {
        "original": "https://images.pexels.com/photos/325490/pexels-photo-325490.jpeg",
        "large2x": "https://images.pexels.com/photos/325490/pexels-photo-325490.jpeg?auto=compress\u0026cs=tinysrgb\u0026dpr=2\u0026h=650\u0026w=940",
        "large": "https://images.pexels.com/photos/325490/pexels-photo-325490.jpeg?auto=compress\u0026cs=tinysrgb\u0026h=650\u0026w=940",
        "medium": "https://images.pexels.com/photos/325490/pexels-photo-325490.jpeg?auto=compress\u0026cs=tinysrgb\u0026h=350",
        "small": "https://images.pexels.com/photos/325490/pexels-photo-325490.jpeg?auto=compress\u0026cs=tinysrgb\u0026h=130",
        "portrait": "https://images.pexels.com/photos/325490/pexels-photo-325490.jpeg?auto=compress\u0026cs=tinysrgb\u0026fit=crop\u0026h=1200\u0026w=800",
        "landscape": "https://images.pexels.com/photos/325490/pexels-photo-325490.jpeg?auto=compress\u0026cs=tinysrgb\u0026fit=crop\u0026h=627\u0026w=1200",
        "tiny": "https://images.pexels.com/photos/325490/pexels-photo-325490.jpeg?auto=compress\u0026cs=tinysrgb\u0026dpr=1\u0026fit=crop\u0026h=200\u0026w=280"
      },
      "liked": false,
      "alt": "Adorable hamster cradled in loving hands with pink manicured nails. Soft focus adds a tender touch."
    },
    {
      "id": 5241293,
      "width": 5184,
      "height": 3456,
      "url": "https://www.pexels.com/photo/person-holding-small-hamsters-in-hands-5241293/",
      "photographer": "Lucas Pezeta",
      "photographer_url": "https://www.pexels.com/@lucaspezeta",
      "photographer_id": 862177,
      "avg_color": "#674F3B",
      "src": {
        "original": "https://images.pexels.com/photos/5241293/pexels-photo-5241293.jpeg",
        "large2x": "https://images.pexels.com/photos/5241293/pexels-photo-5241293.jpeg?auto=compress\u0026cs=tinysrgb\u0026dpr=2\u0026h=650\u0026w=940",
        "large": "https://images.pexels.com/photos/5241293/pexels-photo-5241293.jpeg?auto=compress\u0026cs=tinysrgb\u0026h=650\u0026w=940",
        "medium": "https://images.pexels.com/photos/5241293/pexels-photo-5241293.jpeg?auto=compress\u0026cs=tinysrgb\u0026h=350",
        "small": "https://images.pexels.com/photos/5241293/pexels-photo-5241293.jpeg?auto=compress\u0026cs=tinysrgb\u0026h=130",
        "portrait": "https://images.pexels.com/photos/5241293/pexels-photo-5241293.jpeg?auto=compress\u0026cs=tinysrgb\u0026fit=crop\u0026h=1200\u0026w=800",
        "landscape": "https://images.pexels.com/photos/5241293/pexels-photo-5241293.jpeg?auto=compress\u0026cs=tinysrgb\u0026fit=crop\u0026h=627\u0026w=1200",
        "tiny": "https://images.pexels.com/photos/5241293/pexels-photo-5241293.jpeg?auto=compress\u0026cs=tinysrgb\u0026dpr=1\u0026fit=crop\u0026h=200\u0026w=280"
      },
      "liked": false,
      "alt": "Close-up of two adorable baby hamsters cradled in human hands."
    },
    {
      "id": 15316903,
      "width": 2573,
      "height": 3860,
      "url": "https://www.pexels.com/photo/hamster-in-vase-15316903/",
      "photographer": "Nikolett Emmert",
      "photographer_url": "https://www.pexels.com/@nikiemmert",
      "photographer_id": 1503020,
      "avg_color": "#8A2C2D",
      "src": {
        "original": "https://images.pexels.com/photos/15316903/pexels-photo-15316903.jpeg",
        "large2x": "https://images.pexels.com/photos/15316903/pexels-photo-15316903.jpeg?auto=compress\u0026cs=tinysrgb\u0026dpr=2\u0026h=650\u0026w=940",
        "large": "https://images.pexels.com/photos/15316903/pexels-photo-15316903.jpeg?auto=compress\u0026cs=tinysrgb\u0026h=650\u0026w=940",
        "medium": "https://images.pexels.com/photos/15316903/pexels-photo-15316903.jpeg?auto=compress\u0026cs=tinysrgb\u0026h=350",
        "small": "https://images.pexels.com/photos/15316903/pexels-photo-15316903.jpeg?auto=compress\u0026cs=tinysrgb\u0026h=130",
        "portrait": "https://images.pexels.com/photos/15316903/pexels-photo-15316903.jpeg?auto=compress\u0026cs=tinysrgb\u0026fit=crop\u0026h=1200\u0026w=800",
        "landscape": "https://images.pexels.com/photos/15316903/pexels-photo-15316903.jpeg?auto=compress\u0026cs=tinysrgb\u0026fit=crop\u0026h=627\u0026w=1200",
        "tiny": "https://images.pexels.com/photos/15316903/pexels-photo-15316903.jpeg?auto=compress\u0026cs=tinysrgb\u0026dpr=1\u0026fit=crop\u0026h=200\u0026w=280"
      },
      "liked": false,
      "alt": "Adorable hamster peeking out of a black pot with a green rim, against a red background."
    },
    {
      "id": 3362697,
      "width": 5852,
      "height": 3992,
      "url": "https://www.pexels.com/photo/macro-photography-of-mouse-near-brown-wooden-cage-3362697/",
      "photographer": "Ellie Burgin",
      "photographer_url": "https://www.pexels.com/@ellie-burgin-1661546",
      "photographer_id": 1661546,
      "avg_color": "#88725B",
      "src": {
        "original": "https://images.pexels.com/photos/3362697/pexels-photo-3362697.jpeg",
        "large2x": "https://images.pexels.com/photos/3362697/pexels-photo-3362697.jpeg?auto=compress\u0026cs=tinysrgb\u0026dpr=2\u0026h=650\u0026w=940",
        "large": "https://images.pexels.com/photos/3362697/pexels-photo-3362697.jpeg?auto=compress\u0026cs=tinysrgb\u0026h=650\u0026w=940",
        "medium": "https://images.pexels.com/photos/3362697/pexels-photo-3362697.jpeg?auto=compress\u0026cs=tinysrgb\u0026h=350",
        "small": "https://images.pexels.com/photos/3362697/pexels-photo-3362697.jpeg?auto=compress\u0026cs=tinysrgb\u0026h=130",
        "portrait": "https://images.pexels.com/photos/3362697/pexels-photo-3362697.jpeg?auto=compress\u0026cs=tinysrgb\u0026fit=crop\u0026h=1200\u0026w=800",
        "landscape": "https://images.pexels.com/photos/3362697/pexels-photo-3362697.jpeg?auto=compress\u0026cs=tinysrgb\u0026fit=crop\u0026h=627\u0026w=1200",
        "tiny": "https://images.pexels.com/photos/3362697/pexels-photo-3362697.jpeg?auto=compress\u0026cs=tinysrgb\u0026dpr=1\u0026fit=crop\u0026h=200\u0026w=280"
      },
      "liked": false,
      "alt": "Adorable hamster peeks out of a wooden toy house, surrounded by soft bedding."
    },
    {
      "id": 3586056,
      "width": 4625,
      "height": 3075,
      "url": "https://www.pexels.com/photo/close-up-photography-of-hamster-3586056/",
      "photographer": "Tetyana Kovyrina",
      "photographer_url": "https://www.pexels.com/@kovyrina",
      "photographer_id": 487,
      "avg_color": "#44453F",
      "src": {
        "original": "https://images.pexels.com/photos/3586056/pexels-photo-3586056.jpeg",
        "large2x": "https://images.pexels.com/photos/3586056/pexels-photo-3586056.jpeg?auto=compress\u0026cs=tinysrgb\u0026dpr=2\u0026h=650\u0026w=940",
        "large": "https://images.pexels.com/photos/3586056/pexels-photo-3586056.jpeg?auto=compress\u0026cs=tinysrgb\u0026h=650\u0026w=940",
        "medium": "https://images.pexels.com/photos/3586056/pexels-photo-3586056.jpeg?auto=compress\u0026cs=tinysrgb\u0026h=350",
        "small": "https://images.pexels.com/photos/3586056/pexels-photo-3586056.jpeg?auto=compress\u0026cs=tinysrgb\u0026h=130",
        "portrait": "https://images.pexels.com/photos/3586056/pexels-photo-3586056.jpeg?auto=compress\u0026cs=tinysrgb\u0026fit=crop\u0026h=1200\u0026w=800",
        "landscape": "https://images.pexels.com/photos/3586056/pexels-photo-3586056.jpeg?auto=compress\u0026cs=tinysrgb\u0026fit=crop\u0026h=627\u0026w=1200",
        "tiny": "https://images.pexels.com/photos/3586056/pexels-photo-3586056.jpeg?auto=compress\u0026cs=tinysrgb\u0026dpr=1\u0026fit=crop\u0026h=200\u0026w=280"
      },
      "liked": false,
      "alt": "Adorable Campbell's dwarf hamster with broccoli on a wooden hideout. Perfect cute animal shot."
    },
    {
      "id": 7452555,
      "width": 3024,
      "height": 4032,
      "url": "https://www.pexels.com/photo/hamster-on-top-of-a-pastry-7452555/",
      "photographer": "Mariam Antadze",
      "photographer_url": "https://www.pexels.com/@sunsetoned",
      "photographer_id": 3838865,
      "avg_color": "#C2B5A7",
      "src": {
        "original": "https://images.pexels.com/photos/7452555/pexels-photo-7452555.jpeg",
        "large2x": "https://images.pexels.com/photos/7452555/pexels-photo-7452555.jpeg?auto=compress\u0026cs=tinysrgb\u0026dpr=2\u0026h=650\u0026w=940",
        "large": "https://images.pexels.com/photos/7452555/pexels-photo-7452555.jpeg?auto=compress\u0026cs=tinysrgb\u0026h=650\u0026w=940",
        "medium": "https://images.pexels.com/photos/7452555/pexels-photo-7452555.jpeg?auto=compress\u0026cs=tinysrgb\u0026h=350",
        "small": "https://images.pexels.com/photos/7452555/pexels-photo-7452555.jpeg?auto=compress\u0026cs=tinysrgb\u0026h=130",
        "portrait": "https://images.pexels.com/photos/7452555/pexels-photo-7452555.jpeg?auto=compress\u0026cs=tinysrgb\u0026fit=crop\u0026h=1200\u0026w=800",
        "landscape": "https://images.pexels.com/photos/7452555/pexels-photo-7452555.jpeg?auto=compress\u0026cs=tinysrgb\u0026fit=crop\u0026h=627\u0026w=1200",
        "tiny": "https://images.pexels.com/photos/7452555/pexels-photo-7452555.jpeg?auto=compress\u0026cs=tinysrgb\u0026dpr=1\u0026fit=crop\u0026h=200\u0026w=280"
      },
      "liked": false,
      "alt": "A cute white hamster perched on a pastry cone held by a hand with a diamond ring."
    },
    {
      "id": 8434672,
      "width": 4000,
      "height": 6000,
      "url": "https://www.pexels.com/photo/sugar-glider-on-person-s-hand-8434672/",
      "photographer": "MART  PRODUCTION",
      "photographer_url": "https://www.pexels.com/@mart-production",
      "photographer_id": 30039676,
      "avg_color": "#706553",
      "src": {
        "original": "https://images.pexels.com/photos/8434672/pexels-photo-8434672.jpeg",
        "large2x": "https://images.pexels.com/photos/8434672/pexels-photo-8434672.jpeg?auto=compress\u0026cs=tinysrgb\u0026dpr=2\u0026h=650\u0026w=940",
        "large": "https://images.pexels.com/photos/8434672/pexels-photo-8434672.jpeg?auto=compress\u0026cs=tinysrgb\u0026h=650\u0026w=940",
        "medium": "https://images.pexels.com/photos/8434672/pexels-photo-8434672.jpeg?auto=compress\u0026cs=tinysrgb\u0026h=350",
        "small": "https://images.pexels.com/photos/8434672/pexels-photo-8434672.jpeg?auto=compress\u0026cs=tinysrgb\u0026h=130",
        "portrait": "https://images.pexels.com/photos/8434672/pexels-photo-8434672.jpeg?auto=compress\u0026cs=tinysrgb\u0026fit=crop\u0026h=1200\u0026w=800",
        "landscape": "https://images.pexels.com/photos/8434672/pexels-photo-8434672.jpeg?auto=compress\u0026cs=tinysrgb\u0026fit=crop\u0026h=627\u0026w=1200",
        "tiny": "https://images.pexels.com/photos/8434672/pexels-photo-8434672.jpeg?auto=compress\u0026cs=tinysrgb\u0026dpr=1\u0026fit=crop\u0026h=200\u0026w=280"
      },
      "liked": false,
      "alt": "Close-up of a child's hands gently holding an adorable white hamster indoors."
    },
    {
      "id": 15373308,
      "width": 3289,
      "height": 4933,
      "url": "https://www.pexels.com/photo/cute-hamster-feeding-in-a-mug-15373308/",
      "photographer": "Nikolett Emmert",
      "photographer_url": "https://www.pexels.com/@nikiemmert",
      "photographer_id": 1503020,
      "avg_color": "#872927",
      "src": {
        "original": "https://images.pexels.com/photos/15373308/pexels-photo-15373308.jpeg",
        "large2x": "https://images.pexels.com/photos/15373308/pexels-photo-15373308.jpeg?auto=compress\u0026cs=tinysrgb\u0026dpr=2\u0026h=650\u0026w=940",
        "large": "https://images.pexels.com/photos/15373308/pexels-photo-15373308.jpeg?auto=compress\u0026cs=tinysrgb\u0026h=650\u0026w=940",
        "medium": "https://images.pexels.com/photos/15373308/pexels-photo-15373308.jpeg?auto=compress\u0026cs=tinysrgb\u0026h=350",
        "small": "https://images.pexels.com/photos/15373308/pexels-photo-15373308.jpeg?auto=compress\u0026cs=tinysrgb\u0026h=130",
        "portrait": "https://images.pexels.com/photos/15373308/pexels-photo-15373308.jpeg?auto=compress\u0026cs=tinysrgb\u0026fit=crop\u0026h=1200\u0026w=800",
        "landscape": "https://images.pexels.com/photos/15373308/pexels-photo-15373308.jpeg?auto=compress\u0026cs=tinysrgb\u0026fit=crop\u0026h=627\u0026w=1200",
        "tiny": "https://images.pexels.com/photos/15373308/pexels-photo-15373308.jpeg?auto=compress\u0026cs=tinysrgb\u0026dpr=1\u0026fit=crop\u0026h=200\u0026w=280"
      },
      "liked": false,
      "alt": "Adorable hamster eating in a mug surrounded by glowing string lights on a red background."
    },
    {
      "id": 15373310,
      "width": 3463,
      "height": 5195,
      "url": "https://www.pexels.com/photo/portrait-of-a-cute-hamster-sitting-in-a-mug-surrounded-by-glowing-string-lights-15373310/",
      "photographer": "Nikolett Emmert",
      "photographer_url": "https://www.pexels.com/@nikiemmert",
      "photographer_id": 1503020,
      "avg_color": "#8C2A29",
      "src": {
        "original": "https://images.pexels.com/photos/15373310/pexels-photo-15373310.jpeg",
        "large2x": "https://images.pexels.com/photos/15373310/pexels-photo-15373310.jpeg?auto=compress\u0026cs=tinysrgb\u0026dpr=2\u0026h=650\u0026w=940",
        "large": "https://images.pexels.com/photos/15373310/pexels-photo-15373310.jpeg?auto=compress\u0026cs=tinysrgb\u0026h=650\u0026w=940",
        "medium": "https://images.pexels.com/photos/15373310/pexels-photo-15373310.jpeg?auto=compress\u0026cs=tinysrgb\u0026h=350",
        "small": "https://images.pexels.com/photos/15373310/pexels-photo-15373310.jpeg?auto=compress\u0026cs=tinysrgb\u0026h=130",
        "portrait": "https://images.pexels.com/photos/15373310/pexels-photo-15373310.jpeg?auto=compress\u0026cs=tinysrgb\u0026fit=crop\u0026h=1200\u0026w=800",
        "landscape": "https://images.pexels.com/photos/15373310/pexels-photo-15373310.jpeg?auto=compress\u0026cs=tinysrgb\u0026fit=crop\u0026h=627\u0026w=1200",
        "tiny": "https://images.pexels.com/photos/15373310/pexels-photo-15373310.jpeg?auto=compress\u0026cs=tinysrgb\u0026dpr=1\u0026fit=crop\u0026h=200\u0026w=280"
      },
      "liked": false,
      "alt": "Adorable hamster peeking out of a small pot surrounded by string lights on a red background."
    },
    {
      "id": 7235664,
      "width": 3024,
      "height": 4032,
      "url": "https://www.pexels.com/photo/small-rabbit-sitting-on-textile-in-room-7235664/",
      "photographer": "Mariam Antadze",
      "photographer_url": "https://www.pexels.com/@sunsetoned",
      "photographer_id": 3838865,
      "avg_color": "#9D9790",
      "src": {
        "original": "https://images.pexels.com/photos/7235664/pexels-photo-7235664.jpeg",
        "large2x": "https://images.pexels.com/photos/7235664/pexels-photo-7235664.jpeg?auto=compress\u0026cs=tinysrgb\u0026dpr=2\u0026h=650\u0026w=940",
        "large": "https://images.pexels.com/photos/7235664/pexels-photo-7235664.jpeg?auto=compress\u0026cs=tinysrgb\u0026h=650\u0026w=940",
        "medium": "https://images.pexels.com/photos/7235664/pexels-photo-7235664.jpeg?auto=compress\u0026cs=tinysrgb\u0026h=350",
        "small": "https://images.pexels.com/photos/7235664/pexels-photo-7235664.jpeg?auto=compress\u0026cs=tinysrgb\u0026h=130",
        "portrait": "https://images.pexels.com/photos/7235664/pexels-photo-7235664.jpeg?auto=compress\u0026cs=tinysrgb\u0026fit=crop\u0026h=1200\u0026w=800",
        "landscape": "https://images.pexels.com/photos/7235664/pexels-photo-7235664.jpeg?auto=compress\u0026cs=tinysrgb\u0026fit=crop\u0026h=627\u0026w=1200",
        "tiny": "https://images.pexels.com/photos/7235664/pexels-photo-7235664.jpeg?auto=compress\u0026cs=tinysrgb\u0026dpr=1\u0026fit=crop\u0026h=200\u0026w=280"
      },
      "liked": false,
      "alt": "Top view of small white fluffy bunny sitting on pink fabric near light textile in room with decorated bows at home"
    },
    {
      "id": 15373306,
      "width": 3463,
      "height": 5195,
      "url": "https://www.pexels.com/photo/portrait-of-a-hamster-sitting-in-a-mug-15373306/",
      "photographer": "Nikolett Emmert",
      "photographer_url": "https://www.pexels.com/@nikiemmert",
      "photographer_id": 1503020,
      "avg_color": "#882927",
      "src": {
        "original": "https://images.pexels.com/photos/15373306/pexels-photo-15373306.jpeg",
        "large2x": "https://images.pexels.com/photos/15373306/pexels-photo-15373306.jpeg?auto=compress\u0026cs=tinysrgb\u0026dpr=2\u0026h=650\u0026w=940",
        "large": "https://images.pexels.com/photos/15373306/pexels-photo-15373306.jpeg?auto=compress\u0026cs=tinysrgb\u0026h=650\u0026w=940",
        "medium": "https://images.pexels.com/photos/15373306/pexels-photo-15373306.jpeg?auto=compress\u0026cs=tinysrgb\u0026h=350",
        "small": "https://images.pexels.com/photos/15373306/pexels-photo-15373306.jpeg?auto=compress\u0026cs=tinysrgb\u0026h=130",
        "portrait": "https://images.pexels.com/photos/15373306/pexels-photo-15373306.jpeg?auto=compress\u0026cs=tinysrgb\u0026fit=crop\u0026h=1200\u0026w=800",
        "landscape": "https://images.pexels.com/photos/15373306/pexels-photo-15373306.jpeg?auto=compress\u0026cs=tinysrgb\u0026fit=crop\u0026h=627\u0026w=1200",
        "tiny": "https://images.pexels.com/photos/15373306/pexels-photo-15373306.jpeg?auto=compress\u0026cs=tinysrgb\u0026dpr=1\u0026fit=crop\u0026h=200\u0026w=280"
      },
      "liked": false,
      "alt": "Adorable hamster in a green-slimed black mug surrounded by glowing string lights on a red background."
    },
    {
      "id": 15106525,
      "width": 2581,
      "height": 3871,
      "url": "https://www.pexels.com/photo/a-white-mice-in-close-up-shot-15106525/",
      "photographer": "Nikolett Emmert",
      "photographer_url": "https://www.pexels.com/@nikiemmert",
      "photographer_id": 1503020,
      "avg_color": "#5D4A4C",
      "src": {
        "original": "https://images.pexels.com/photos/15106525/pexels-photo-15106525.jpeg",
        "large2x": "https://images.pexels.com/photos/15106525/pexels-photo-15106525.jpeg?auto=compress\u0026cs=tinysrgb\u0026dpr=2\u0026h=650\u0026w=940",
        "large": "https://images.pexels.com/photos/15106525/pexels-photo-15106525.jpeg?auto=compress\u0026cs=tinysrgb\u0026h=650\u0026w=940",
        "medium": "https://images.pexels.com/photos/15106525/pexels-photo-15106525.jpeg?auto=compress\u0026cs=tinysrgb\u0026h=350",
        "small": "https://images.pexels.com/photos/15106525/pexels-photo-15106525.jpeg?auto=compress\u0026cs=tinysrgb\u0026h=130",
        "portrait": "https://images.pexels.com/photos/15106525/pexels-photo-15106525.jpeg?auto=compress\u0026cs=tinysrgb\u0026fit=crop\u0026h=1200\u0026w=800",
        "landscape": "https://images.pexels.com/photos/15106525/pexels-photo-15106525.jpeg?auto=compress\u0026cs=tinysrgb\u0026fit=crop\u0026h=627\u0026w=1200",
        "tiny": "https://images.pexels.com/photos/15106525/pexels-photo-15106525.jpeg?auto=compress\u0026cs=tinysrgb\u0026dpr=1\u0026fit=crop\u0026h=200\u0026w=280"
      },
      "liked": false,
      "alt": "Adorable close-up of a curious domestic rat peeking over a ledge, showcasing its whiskers."
    },
    {
      "id": 10884423,
      "width": 3317,
      "height": 1866,
      "url": "https://www.pexels.com/photo/a-white-hamster-on-brown-wooden-table-10884423/",
      "photographer": "Nestorsh",
      "photographer_url": "https://www.pexels.com/@nestorsh-102494296",
      "photographer_id": 102494296,
      "avg_color": "#62401A",
      "src": {
        "original": "https://images.pexels.com/photos/10884423/pexels-photo-10884423.jpeg",
        "large2x": "https://images.pexels.com/photos/10884423/pexels-photo-10884423.jpeg?auto=compress\u0026cs=tinysrgb\u0026dpr=2\u0026h=650\u0026w=940",
        "large": "https://images.pexels.com/photos/10884423/pexels-photo-10884423.jpeg?auto=compress\u0026cs=tinysrgb\u0026h=650\u0026w=940",
        "medium": "https://images.pexels.com/photos/10884423/pexels-photo-10884423.jpeg?auto=compress\u0026cs=tinysrgb\u0026h=350",
        "small": "https://images.pexels.com/photos/10884423/pexels-photo-10884423.jpeg?auto=compress\u0026cs=tinysrgb\u0026h=130",
        "portrait": "https://images.pexels.com/photos/10884423/pexels-photo-10884423.jpeg?auto=compress\u0026cs=tinysrgb\u0026fit=crop\u0026h=1200\u0026w=800",
        "landscape": "https://images.pexels.com/photos/10884423/pexels-photo-10884423.jpeg?auto=compress\u0026cs=tinysrgb\u0026fit=crop\u0026h=627\u0026w=1200",
        "tiny": "https://images.pexels.com/photos/10884423/pexels-photo-10884423.jpeg?auto=compress\u0026cs=tinysrgb\u0026dpr=1\u0026fit=crop\u0026h=200\u0026w=280"
      },
      "liked": false,
      "alt": "Adorable white hamster sitting on a wooden surface against a dark backdrop."
    },
    {
      "id": 16509323,
      "width": 4000,
      "height": 6000,
      "url": "https://www.pexels.com/photo/hamster-among-leaves-16509323/",
      "photographer": "Zacharias Korsalka",
      "photographer_url": "https://www.pexels.com/@zacharias-korsalka-21691965",
      "photographer_id": 21691965,
      "avg_color": "#2C451E",
      "src": {
        "original": "https://images.pexels.com/photos/16509323/pexels-photo-16509323.jpeg",
        "large2x": "https://images.pexels.com/photos/16509323/pexels-photo-16509323.jpeg?auto=compress\u0026cs=tinysrgb\u0026dpr=2\u0026h=650\u0026w=940",
        "large": "https://images.pexels.com/photos/16509323/pexels-photo-16509323.jpeg?auto=compress\u0026cs=tinysrgb\u0026h=650\u0026w=940",
        "medium": "https://images.pexels.com/photos/16509323/pexels-photo-16509323.jpeg?auto=compress\u0026cs=tinysrgb\u0026h=350",
        "small": "https://images.pexels.com/photos/16509323/pexels-photo-16509323.jpeg?auto=compress\u0026cs=tinysrgb\u0026h=130",
        "portrait": "https://images.pexels.com/photos/16509323/pexels-photo-16509323.jpeg?auto=compress\u0026cs=tinysrgb\u0026fit=crop\u0026h=1200\u0026w=800",
        "landscape": "https://images.pexels.com/photos/16509323/pexels-photo-16509323.jpeg?auto=compress\u0026cs=tinysrgb\u0026fit=crop\u0026h=627\u0026w=1200",
        "tiny": "https://images.pexels.com/photos/16509323/pexels-photo-16509323.jpeg?auto=compress\u0026cs=tinysrgb\u0026dpr=1\u0026fit=crop\u0026h=200\u0026w=280"
      },
      "liked": false,
      "alt": "European hamster in grass, showcasing natural surroundings and wildlife behavior."
    }
  ],
  "total_results": 77,
  "next_page": "https://api.pexels.com/v1/search?page=2\u0026per_page=15\u0026query=hamsters"
}
